<svg xmlns="http://www.w3.org/2000/svg" viewBox="0 0 22 21">
  <path d="M7.25 6.35l-6.4.93-.1.02A1 1 0 00.3 9l4.63 4.5-1.1 6.36v.11a1 1 0 001.46.95L11 17.9l5.71 3 .1.05a1 1 0 001.36-1.1l-1.1-6.36 4.63-4.5.08-.09a1 1 0 00-.64-1.62l-6.39-.93L11.9.55a1 1 0 00-1.8 0l-2.85 5.8zM11 3.25l2.2 4.45.05.1c.16.25.41.4.7.45l4.9.72-3.55 3.45-.08.1a1 1 0 00-.2.79l.83 4.88-4.38-2.3-.12-.06a1 1 0 00-.82.05L6.15 18.2l.84-4.88v-.12a1 1 0 00-.3-.77L3.16 8.97l4.9-.72a1 1 0 00.76-.55L11 3.26z"/>
</svg>
